{
    "model": "instructors/me/classes/600174971/teachingEvents",
    "settings": {
      "i18n": {
        "el": {
          "Date": "Ημερομηνία",
          "Start Time": "Αρχή Γεγονότος",
          "End Time": "Τέλος Γεγονότος",
          "Event Name": "Τίτλος Γεγονότος",
          "Description": "Περιγραφή",
          "Sections": "Τμήματα",
          "Event Details": "Λεπτομέρειες Γεγονότος",
          "New Event": "Νέο Γεγονός",
          "Presence Coefficient": "Συντελεστής παρουσίας",
          "Start time cannot precede end time.": "Η ώρα έναρξης δεν μπορεί να προηγείται της ώρας λήξης."
        }
      }
    },
    "components": [
      {
        "type": "fieldset",
        "legend": "Event Details",
        "components": [
          {
            "customClass": "text-dark",
            "hideLabel": true,
            "type": "columns",
            "input": false,
            "columns": [
              {
                "components": [
              {
                "label": "Date",
                "format": "dd-MM-yyyy",
                "enableTime": false,
                "tableView": false,
                "enableMinDateInput": false,
                "datePicker": {
                    "disableWeekends": false,
                    "disableWeekdays": false
                },
                "enableMaxDateInput": false,
                "timePicker": {
                    "minuteStep": 15,
                    "showMeridian": false
                },
                "validate": {
                    "required": true
                },
                "key": "startDate",
                "type": "datetime",
                "input": true,
                "widget": {
                    "type": "calendar",
                    "displayInTimezone": "viewer",
                    "locale": "en",
                    "useLocaleSettings": false,
                    "allowInput": true,
                    "mode": "single",
                    "enableTime": false,
                    "noCalendar": false,
                    "format": "yyyy-MM-dd",
                    "hourIncrement": 1,
                    "minuteIncrement": 1,
                    "time_24hr": true,
                    "minDate": null,
                    "disableWeekends": false,
                    "disableWeekdays": false,
                    "maxDate": null
                }
              }
              ],
              "width": 4
            },
          {
            "components": [
              {
                "label": "Start Time",
                "format": "HH:mm",
                "tableView": false,
                "enableDate": false,
                "enableMinDateInput": false,
                "datePicker": {
                    "disableWeekends": false,
                    "disableWeekdays": false
                },
                "enableMaxDateInput": false,
                "validate": {
                  "required": true
                },
                "customDefaultValue": "value = moment().startOf('hour').toDate().toISOString();",
                "timePicker": {
                    "minuteStep": 15,
                    "showMeridian": false
                },
                "key": "startTime",
                "type": "datetime",
                "input": true,
                "widget": {
                    "type": "calendar",
                    "displayInTimezone": "viewer",
                    "locale": "en",
                    "useLocaleSettings": false,
                    "allowInput": true,
                    "mode": "single",
                    "enableTime": true,
                    "noCalendar": true,
                    "format": "HH:mm",
                    "hourIncrement": 1,
                    "minuteIncrement": 15,
                    "time_24hr": true,
                    "minDate": null,
                    "disableWeekends": false,
                    "disableWeekdays": false,
                    "maxDate": null
                }
            }
          ],
          "width": 4
        },
          {
            "components": [
              {
                "label": "End Time",
                "format": "HH:mm",
                "tableView": false,
                "enableDate": false,
                "enableMinDateInput": false,
                "datePicker": {
                    "disableWeekends": false,
                    "disableWeekdays": false
                },
                "enableMaxDateInput": false,
                "validate": {
                  "required": true,
                  "custom": "valid = data.startTime < input || !input || !data.startTime || ! data.startDate ? true : false;",
                  "customMessage": "Start time cannot precede end time."
                },
                "timePicker": {
                    "minuteStep": 15,
                    "showMeridian": false
                },
                "key": "endTime",
                "type": "datetime",
                "input": true,
                "validateOn": "change",
                "customDefaultValue": "value = moment().add(2,'h').startOf('hour').toDate().toISOString();",
                "widget": {
                    "type": "calendar",
                    "displayInTimezone": "viewer",
                    "locale": "en",
                    "useLocaleSettings": false,
                    "allowInput": true,
                    "mode": "single",
                    "enableTime": true,
                    "noCalendar": true,
                    "format": "HH:mm",
                    "hourIncrement": 1,
                    "minuteIncrement": 15,
                    "time_24hr": true,
                    "minDate": null,
                    "disableWeekends": false,
                    "disableWeekdays": false,
                    "maxDate": null
                }
            }
          ],
          "width": 4
        },
          {
            "components": [
            {
              "label": "Event Name",
              "widget": {
                "type": "input"
              },
              "validate": {
                  "required": true
              },
              "key": "title",
              "type": "textfield",
              "input": true,
              "customDefaultValue": "value = data.title;",
              "refreshOnChange": true
            }
          ],
          "width": 4
          },
          {
            "components": [
            {
              "label": "Description",
              "tableView": true,
              "validate": {
                  "required": false
              },
              "key": "description",
              "type": "textfield",
              "input": true
          }
          ],
          "width": 4
          },
              {
            "components": [
            {
              "label": "Presence Coefficient",
              "tableView": true,
              "validate": {
                  "required": false
              },
              "key": "eventAttendanceCoefficient",
              "type": "textfield",
              "input": true,
              "defaultValue": 1
          }
          ],
          "width": 4
          },
            {
              "components": [
                  {
                      "label": "Sections",
                      "widget": "choicesjs",
                      "tableView": true,
                      "multiple": true,
                      "template": "{{ item.name }}",
                      "dataType": "object",
                      "idPath": "id",
                      "dataSrc": "url",
                      "data": {
                        "url": "{{data.input.endpoint}}",
                        "headers": []
                      },
                      "customConditional": "show = !!(data.input && data.input.mustRegisterSection);",
                      "selectThreshold": 0.3,
                      "validate": {
                          "required": true
                      },
                      "key": "sections",
                      "type": "select",
                      "input": true
                  }
              ],
              "width": 4
            }
            ]
          }
        ]
      }
    ]
  }
